…
I’m using the tidyverse library because it’s really useful for producing
really clean graphs and a sweet language for cleaning and massaging
data. See some cool graphs at the end. I’ve put my first attempt at
solving this at the bottom if you want to see my process.

``` r
# STARTING F ROM SCRATCH
  #Clean SchoolDemo
library(tidyverse)
library(knitr)
(SchoolDemo <- read_csv("~/Documents/R/Datasets/2017_18__2021_22_Demographic_Snapshot.csv"))
```

    ## # A tibble: 9,251 x 44
    ##    DBN   `School Name` Year  `Total Enrollme… `Grade 3K` `Grade PK (Half…
    ##    <chr> <chr>         <chr>            <dbl>      <dbl>            <dbl>
    ##  1 01M0… P.S. 015 Rob… 2017…              190          0               17
    ##  2 01M0… P.S. 015 Rob… 2018…              174          0               13
    ##  3 01M0… P.S. 015 Rob… 2019…              190          0               14
    ##  4 01M0… P.S. 015 Rob… 2020…              193          0               17
    ##  5 01M0… P.S. 015 Rob… 2021…              179          0               15
    ##  6 01M0… P.S. 019 Ash… 2017…              257          0               13
    ##  7 01M0… P.S. 019 Ash… 2018…              249          0               10
    ##  8 01M0… P.S. 019 Ash… 2019…              236          0               16
    ##  9 01M0… P.S. 019 Ash… 2020…              212          0               13
    ## 10 01M0… P.S. 019 Ash… 2021…              176          9                7
    ## # … with 9,241 more rows, and 38 more variables: `Grade K` <dbl>, `Grade
    ## #   1` <dbl>, `Grade 2` <dbl>, `Grade 3` <dbl>, `Grade 4` <dbl>, `Grade
    ## #   5` <dbl>, `Grade 6` <dbl>, `Grade 7` <dbl>, `Grade 8` <dbl>, `Grade
    ## #   9` <dbl>, `Grade 10` <dbl>, `Grade 11` <dbl>, `Grade 12` <dbl>, `#
    ## #   Female` <dbl>, `% Female` <dbl>, `# Male` <dbl>, `% Male` <dbl>, `#
    ## #   Asian` <dbl>, `% Asian` <dbl>, `# Black` <dbl>, `% Black` <dbl>, `#
    ## #   Hispanic` <dbl>, `% Hispanic` <dbl>, `# Multi-Racial` <dbl>, `%
    ## #   Multi-Racial` <dbl>, `# Native American` <dbl>, `% Native
    ## #   American` <dbl>, `# White` <dbl>, `% White` <dbl>, `# Missing
…
<https://www.reuters.com/article/us-new-york-schools-racism/new-york-city-school-segregation-perpetuates-racism-lawsuit-contends-idUSKBN2B11WI>

## REGRESSION ANALYSIS

Behold, math. Let’s take a look at the effect that COVID had on
different age groups and see if there’s any statistic differences. Lets
take a look at how often Black, White and Asian students overlap in the
schools they’re at (our last analysis showed Hispanic students are
present in most schools).

``` r
SchoolDemo
```

    ## # A tibble: 9,251 x 44
    ##    DBN   `School Name` Year  `Total Enrollme… `Grade 3K` `Grade PK (Half…
    ##    <chr> <chr>         <chr>            <dbl>      <dbl>            <dbl>
    ##  1 01M0… P.S. 015 Rob… 2017               190          0               17
    ##  2 01M0… P.S. 015 Rob… 2018               174          0               13
    ##  3 01M0… P.S. 015 Rob… 2019               190          0               14
    ##  4 01M0… P.S. 015 Rob… 2020               193          0               17
    ##  5 01M0… P.S. 015 Rob… 2021               179          0               15
    ##  6 01M0… P.S. 019 Ash… 2017               257          0               13
    ##  7 01M0… P.S. 019 Ash… 2018               249          0               10
    ##  8 01M0… P.S. 019 Ash… 2019               236          0               16
    ##  9 01M0… P.S. 019 Ash… 2020               212          0               13
    ## 10 01M0… P.S. 019 Ash… 2021               176          9                7
    ## # … with 9,241 more rows, and 38 more variables: `Grade K` <dbl>, `Grade
    ## #   1` <dbl>, `Grade 2` <dbl>, `Grade 3` <dbl>, `Grade 4` <dbl>, `Grade
    ## #   5` <dbl>, `Grade 6` <dbl>, `Grade 7` <dbl>, `Grade 8` <dbl>, `Grade
    ## #   9` <dbl>, `Grade 10` <dbl>, `Grade 11` <dbl>, `Grade 12` <dbl>, `#
    ## #   Female` <dbl>, `% Female` <dbl>, `# Male` <dbl>, `% Male` <dbl>, `#
    ## #   Asian` <dbl>, `% Asian` <dbl>, `# Black` <dbl>, `% Black` <dbl>, `#
    ## #   Hispanic` <dbl>, `% Hispanic` <dbl>, `# Multi-Racial` <dbl>, `%
    ## #   Multi-Racial` <dbl>, `# Native American` <dbl>, `% Native
    ## #   American` <dbl>, `# White` <dbl>, `% White` <dbl>, `# Missing
…
The end.

## PS.

This was my first attempt to make this work with some notes. See below
for

``` r
library(tidyverse)
(SchoolDemo <- read_csv("~/Documents/R/Datasets/2017_18__2021_22_Demographic_Snapshot.csv"))
```

    ## # A tibble: 9,251 x 44
    ##    DBN   `School Name` Year  `Total Enrollme… `Grade 3K` `Grade PK (Half…
    ##    <chr> <chr>         <chr>            <dbl>      <dbl>            <dbl>
    ##  1 01M0… P.S. 015 Rob… 2017…              190          0               17
    ##  2 01M0… P.S. 015 Rob… 2018…              174          0               13
    ##  3 01M0… P.S. 015 Rob… 2019…              190          0               14
    ##  4 01M0… P.S. 015 Rob… 2020…              193          0               17
    ##  5 01M0… P.S. 015 Rob… 2021…              179          0               15
    ##  6 01M0… P.S. 019 Ash… 2017…              257          0               13
    ##  7 01M0… P.S. 019 Ash… 2018…              249          0               10
    ##  8 01M0… P.S. 019 Ash… 2019…              236          0               16
    ##  9 01M0… P.S. 019 Ash… 2020…              212          0               13
    ## 10 01M0… P.S. 019 Ash… 2021…              176          9                7
    ## # … with 9,241 more rows, and 38 more variables: `Grade K` <dbl>, `Grade
    ## #   1` <dbl>, `Grade 2` <dbl>, `Grade 3` <dbl>, `Grade 4` <dbl>, `Grade
    ## #   5` <dbl>, `Grade 6` <dbl>, `Grade 7` <dbl>, `Grade 8` <dbl>, `Grade
    ## #   9` <dbl>, `Grade 10` <dbl>, `Grade 11` <dbl>, `Grade 12` <dbl>, `#
    ## #   Female` <dbl>, `% Female` <dbl>, `# Male` <dbl>, `% Male` <dbl>, `#
    ## #   Asian` <dbl>, `% Asian` <dbl>, `# Black` <dbl>, `% Black` <dbl>, `#
    ## #   Hispanic` <dbl>, `% Hispanic` <dbl>, `# Multi-Racial` <dbl>, `%
    ## #   Multi-Racial` <dbl>, `# Native American` <dbl>, `% Native
    ## #   American` <dbl>, `# White` <dbl>, `% White` <dbl>, `# Missing
…
